{
  "data": [
    {
      "groupName": "Quản trị viên",
      "groupKey": "admin",
      "permissions": [
        { "key": "adminGetList", "name": "Lấy danh sách quản trị viên" },
        { "key": "adminCreate", "name": "Tạo quản trị viên" },
        { "key": "adminUpdate", "name": "Cập nhật quản trị viên" },
        { "key": "adminDelete", "name": "Xóa quản trị viên" }
      ]
    },
    {
      "groupName": "Loại hình công ty",
      "groupKey": "companyType",
      "permissions": [
        {
          "key": "companyTypeGetList",
          "name": "Lấy danh sách Loại hình công ty"
        },
        { "key": "companyTypeCreate", "name": "Tạo Loại hình công ty" },
        { "key": "companyTypeUpdate", "name": "Cập nhật Loại hình công ty" },
        { "key": "companyTypeDelete", "name": "Xóa Loại hình công ty" }
      ]
    },
    {
      "groupName": "Vai trò Người quản trị",
      "groupKey": "role",
      "permissions": [
        { "key": "roleGetList", "name": "Lấy danh sách vai trò" },
        { "key": "roleCreate", "name": "Tạo vai trò" },
        { "key": "roleDisableEnable", "name": "Khóa/Kích hoạt vai trò" },
        { "key": "roleUpdate", "name": "Cập nhật vai trò" },
        { "key": "roleDelete", "name": "Xóa vai trò" }
      ]
    },
    {
      "groupName": "Cài đặt hệ thống",
      "groupKey": "systemConst",
      "permissions": [
        {
          "key": "systemConstGetList",
          "name": "Lấy danh các cài đặt hệ thống"
        },
        { "key": "systemConstUpdate", "name": "Cập nhật cài đặt hệ thống" }
      ]
    },
    {
      "groupName": "Vai trò Người dùng",
      "groupKey": "userRole",
      "permissions": [
        {
          "key": "userRoleGetList",
          "name": "Lấy danh sách vai trò người dùng"
        },
        { "key": "userRoleCreate", "name": "Tạo vai trò người dùng" },
        {
          "key": "userRoleDisableEnable",
          "name": "Khóa/Kích hoạt vai trò người dùng"
        },
        { "key": "userRoleUpdate", "name": "Cập nhật vai trò người dùng" },
        { "key": "userRoleDelete", "name": "Xóa vai trò người dùng" }
      ]
    },
    {
      "groupName": "Loại tiền tệ",
      "groupKey": "moneyType",
      "permissions": [
        {
          "key": "moneyTypeGetList",
          "name": "Lấy danh sách loại tiền tệ"
        },
        { "key": "moneyTypeCreate", "name": "Tạo loại tiền tệ" },
        { "key": "moneyTypeUpdate", "name": "Cập nhật loại tiền tệ" },
        { "key": "moneyTypeDelete", "name": "Xóa loại tiền tệ" }
      ]
    },
    {
      "groupName": "Tài khoản kế toán",
      "groupKey": "accountNumber",
      "permissions": [
        { "key": "accountNumberCreate", "name": "Tạo tài khoản kế toán" },
        { "key": "accountNumberUpdate", "name": "Cập nhật tài khoản kế toán" },
        { "key": "accountNumberDelete", "name": "Xóa tài khoản kế toán" }
      ]
    },
    {
      "groupName": "Cài đặt thuế",
      "groupKey": "settingTax",
      "permissions": [
        { "key": "settingTaxCreate", "name": "Tạo Cài đặt thuế" },
        { "key": "settingTaxUpdate", "name": "Cập nhật Cài đặt thuế" },
        { "key": "settingTaxDelete", "name": "Xóa Cài đặt thuế" }
      ]
    },
    {
      "groupName": "Cài đặt ngân hàng",
      "groupKey": "settingBank",
      "permissions": [
        { "key": "settingBankCreate", "name": "Tạo Cài đặt ngân hàng" },
        { "key": "settingBankUpdate", "name": "Cập nhật Cài đặt ngân hàng" },
        { "key": "settingBankDelete", "name": "Xóa Cài đặt ngân hàng" }
      ]
    }
  ]
}
